1 : Creee
2 : Creee
3 : Creee
4 : Creee
5 : Creee
6 : UQAM UQAM
7 : UQAM UQAM
8 : UQAM UQAM
9 : UQAM UQAM
10 : UQAM UQAM
11 : NonDispo
12 : UQAM UQAM
13 : UQAM UQAM
14 : UQAM UQAM
15 : UQAM UQAM
16 : UQAM UQAM
17 : UQAM UQAM
18 : UQAM UQAM
19 : UQAM UQAM
20 : UQAM UQAM
21 : UQAM UQAM
22 : UQAM UQAM
23 : UQAM UQAM
24 : UQAM UQAM
25 : UQAM UQAM
26 : UQAM UQAM
27 : NonDispo
28 : UQAM UQAM
29 : UQAM UQAM
30 : UQAM UQAM
31 : UQAM UQAM
32 : UQAM UQAM
